lectures/lecture_1/verlog_mips_cpu/dump.vcd
$date
	Wed Aug 21 17:23:23 2024
$end
$version
	Icarus Verilog
$end
$timescale
	1s
$end
$scope module cpu_test $end
$var wire 32 ! instruction_memory_rd [31:0] $end
$var wire 1 " register_we3 $end
$var wire 32 # register_wd3 [31:0] $end
$var wire 32 $ register_rd2 [31:0] $end
$var wire 32 % register_rd1 [31:0] $end
$var wire 5 & register_a3 [4:0] $end
$var wire 5 ' register_a2 [4:0] $end
$var wire 5 ( register_a1 [4:0] $end
$var wire 32 ) pc_new [31:0] $end
$var wire 32 * pc [31:0] $end
$var wire 32 + instruction_memory_a [31:0] $end
$var wire 1 , data_memory_we $end
$var wire 32 - data_memory_wd [31:0] $end
$var wire 32 . data_memory_rd [31:0] $end
$var wire 32 / data_memory_a [31:0] $end
$var reg 1 0 clk $end
$var reg 32 1 i_counter [31:0] $end
$var reg 32 2 mem_counter [31:0] $end
$var reg 32 3 reg_counter [31:0] $end
$scope module cpu $end
$var wire 1 0 clk $end
$var wire 32 4 data_memory_a [31:0] $end
$var wire 32 5 data_memory_wd [31:0] $end
$var wire 1 , data_memory_we $end
$var wire 32 6 instruction_memory_a [31:0] $end
$var wire 32 7 instruction_memory_rd [31:0] $end
$var wire 1 " register_we3 $end
$var wire 32 8 source_of_first_register_a1 [31:0] $end
$var wire 1 9 zero_flag $end
$var wire 32 : source_of_second_register_a2 [31:0] $end
$var wire 32 ; second_jump_command_group [31:0] $end
$var wire 32 < result [31:0] $end
$var wire 32 = register_wd3 [31:0] $end
$var wire 5 > register_to_write [4:0] $end
$var wire 32 ? register_rd2 [31:0] $end
$var wire 32 @ register_rd1 [31:0] $end
$var wire 5 A register_a3 [4:0] $end
$var wire 5 B register_a2 [4:0] $end
$var wire 5 C register_a1 [4:0] $end
$var wire 1 D registerWrite $end
$var wire 1 E registerDestination $end
$var wire 32 F pc_new [31:0] $end
$var wire 32 G pc [31:0] $end
$var wire 1 H memWrite $end
$var wire 1 I memToReg $end
$var wire 32 J jump_addresses [31:0] $end
$var wire 1 K jumpRegister $end
$var wire 1 L jumpAndLink $end
$var wire 1 M jump $end
$var wire 32 N first_jump_command_group [31:0] $end
$var wire 32 O data_memory_rd [31:0] $end
$var wire 32 P const_sign_extend_value [31:0] $end
$var wire 1 Q branchIfNotEqual $end
$var wire 1 R branch $end
$var wire 32 S bif_shift [31:0] $end
$var wire 32 T alu_result [31:0] $end
$var wire 1 U aluSource $end
$var wire 6 V aluContol [5:0] $end
$var wire 32 W PCPlus4 [31:0] $end
$var wire 32 X PCBranch [31:0] $end
$scope module add_to_branch $end
$var wire 32 Y out [31:0] $end
$var wire 32 Z b [31:0] $end
$var wire 32 [ a [31:0] $end
$upscope $end
$scope module adder_to_pc $end
$var wire 32 \ b [31:0] $end
$var wire 32 ] out [31:0] $end
$var wire 32 ^ a [31:0] $end
$upscope $end
$scope module bit_shift $end
$var wire 32 _ out [31:0] $end
$var wire 32 ` in [31:0] $end
$upscope $end
$scope module first_mux $end
$var wire 5 a d1 [4:0] $end
$var wire 5 b out [4:0] $end
$var wire 5 c d0 [4:0] $end
$var wire 1 L a $end
$upscope $end
$scope module main_alu $end
$var wire 32 d firstOperand [31:0] $end
$var wire 1 9 zeroFlag $end
$var wire 32 e secondOperand [31:0] $end
$var wire 6 f controlSignal [5:0] $end
$var wire 32 g aluResult [31:0] $end
$var reg 32 h reg_alu_result [31:0] $end
$var reg 1 9 reg_zero_flag $end
$upscope $end
$scope module mux_for_addresses $end
$var wire 32 i d0 [31:0] $end
$var wire 32 j d1 [31:0] $end
$var wire 32 k out [31:0] $end
$var wire 1 K a $end
$upscope $end
$scope module mux_for_alu_and_read_data $end
$var wire 32 l d0 [31:0] $end
$var wire 32 m out [31:0] $end
$var wire 32 n d1 [31:0] $end
$var wire 1 I a $end
$upscope $end
$scope module mux_for_branch_and_branch_if_not_equal $end
$var wire 1 o a $end
$var wire 32 p d0 [31:0] $end
$var wire 32 q d1 [31:0] $end
$var wire 32 r out [31:0] $end
$upscope $end
$scope module mux_for_second_source $end
$var wire 32 s out [31:0] $end
$var wire 32 t d1 [31:0] $end
$var wire 32 u d0 [31:0] $end
$var wire 1 U a $end
$upscope $end
$scope module mux_for_write_data_register $end
$var wire 32 v d0 [31:0] $end
$var wire 32 w d1 [31:0] $end
$var wire 32 x out [31:0] $end
$var wire 1 L a $end
$upscope $end
$scope module my_mips_control_unit $end
$var wire 6 y currentFunction [5:0] $end
$var wire 6 z operand [5:0] $end
$var reg 6 { aluControl [5:0] $end
$var reg 1 U aluSource $end
$var reg 1 R branch $end
$var reg 1 Q branchIfNotEqual $end
$var reg 1 M jump $end
$var reg 1 L jumpAndLink $end
$var reg 1 K jumpRegister $end
$var reg 1 I memToReg $end
$var reg 1 H memWrite $end
$var reg 1 E registerDestination $end
$var reg 1 D registerWrite $end
$upscope $end
$scope module result_jump_mux $end
$var wire 1 M a $end
$var wire 32 | d0 [31:0] $end
$var wire 32 } d1 [31:0] $end
$var wire 32 ~ out [31:0] $end
$upscope $end
$scope module second_mux $end
$var wire 1 E a $end
$var wire 5 !" d0 [4:0] $end
$var wire 5 "" d1 [4:0] $end
$var wire 5 #" out [4:0] $end
$upscope $end
$scope module util_sign_extend $end
$var wire 16 $" in [15:0] $end
$var wire 32 %" out [31:0] $end
$upscope $end
$upscope $end
$scope module cpu_data_memory $end
$var wire 32 &" a [31:0] $end
$var wire 1 0 clk $end
$var wire 32 '" rd [31:0] $end
$var wire 32 (" wd [31:0] $end
$var wire 1 , we $end
$var integer 32 )" i [31:0] $end
$upscope $end
$scope module cpu_instruction_memory $end
$var wire 32 *" a [31:0] $end
$var wire 32 +" rd [31:0] $end
$upscope $end
$scope module cpu_register $end
$var wire 5 ," a1 [4:0] $end
$var wire 5 -" a2 [4:0] $end
$var wire 5 ." a3 [4:0] $end
$var wire 1 0 clk $end
$var wire 32 /" rd1 [31:0] $end
$var wire 32 0" rd2 [31:0] $end
$var wire 32 1" wd3 [31:0] $end
$var wire 1 " we3 $end
$var integer 32 2" i [31:0] $end
$upscope $end
$scope module program_counter $end
$var wire 1 0 clk $end
$var wire 32 3" d [31:0] $end
$var reg 32 4" q [31:0] $end
$upscope $end
$upscope $end
$enddefinitions $end
$comment Show the parameter values. $end
$dumpall
$end
#0
$dumpvars
b0 4"
b100 3"
b100000 2"
b110000 1"
b0 0"
b0 /"
b100 ."
b100 -"
b0 ,"
b100000000001000000000000110000 +"
b0 *"
b100000000000 )"
b0 ("
b0 '"
b110000 &"
b110000 %"
b110000 $"
b100 #"
b0 ""
b100 !"
b100 ~
b100000000000011000000 }
b100 |
b100000 {
b1000 z
b110000 y
b110000 x
b100 w
b110000 v
b0 u
b110000 t
b110000 s
b100 r
b11000100 q
b100 p
0o
b0 n
b110000 m
b110000 l
b100000000000011000000 k
b0 j
b100000000000011000000 i
b110000 h
b110000 g
b100000 f
b110000 e
b0 d
b100 c
b100 b
b11111 a
b110000 `
b11000000 _
b0 ^
b100 ]
b100 \
b100 [
b11000000 Z
b11000100 Y
b11000100 X
b100 W
b100000 V
1U
b110000 T
b11000000 S
0R
0Q
b110000 P
b0 O
b100 N
0M
0L
0K
b100000000000011000000 J
0I
0H
b0 G
b100 F
0E
1D
b0 C
b100 B
b100 A
b0 @
b0 ?
b100 >
b110000 =
b110000 <
b100000000000011000000 ;
b110000 :
09
b0 8
b100000000001000000000000110000 7
b0 6
b0 5
b110000 4
bx 3
bx 2
b0 1
x0
b110000 /
b0 .
b0 -
0,
b0 +
b0 *
b100 )
b0 (
b100 '
b100 &
b0 %
b0 $
b110000 #
1"
b100000000001000000000000110000 !
$end
#5
b0 #
b0 =
b0 x
b0 1"
b0 <
b0 m
b0 v
b0 /
b0 4
b0 &"
b0 T
b0 g
b0 h
b0 l
b0 &
b0 A
b0 b
b0 ."
b0 :
b0 e
b0 s
b101100 S
b101100 Z
b101100 _
b0 >
b0 c
b0 #"
b101100 ;
b101100 k
b101100 }
b101100 )
b101100 F
b101100 ~
b101100 3"
1M
0"
0D
0U
b1011 P
b1011 `
b1011 t
b1011 %"
b1011 $"
b0 !"
b0 '
b0 B
b0 -"
b101100 J
b101100 i
b1000 N
b1000 r
b1000 |
b10 z
b1011 y
b1000000000000000000000001011 !
b1000000000000000000000001011 7
b1000000000000000000000001011 +"
b110100 X
b110100 Y
b110100 q
b1000 W
b1000 [
b1000 ]
b1000 p
b1000 w
b100 +
b100 6
b100 *"
b100 *
b100 G
b100 ^
b100 4"
b0 -
b0 5
b0 ("
b0 $
b0 ?
b0 u
b0 0"
10
#10
b1 1
00
#15
b1 #
b1 =
b1 x
b1 1"
b1 <
b1 m
b1 v
b1 /
b1 4
b1 &"
b1 T
b1 g
b1 h
b1 l
b10000 &
b10000 A
b10000 b
b10000 ."
b1 :
b1 e
b1 s
b110000 )
b110000 F
b110000 ~
b110000 3"
b100 S
b100 Z
b100 _
b10000 >
b10000 c
b10000 #"
b10000000000000000000100 ;
b10000000000000000000100 k
b10000000000000000000100 }
1"
1D
1U
0M
b1 P
b1 `
b1 t
b1 %"
b1 $"
b10000 !"
b10000 '
b10000 B
b10000 -"
b10000000000000000000100 J
b10000000000000000000100 i
b110000 N
b110000 r
b110000 |
b1000 z
b1 y
b100000000100000000000000000001 !
b100000000100000000000000000001 7
b100000000100000000000000000001 +"
b110100 X
b110100 Y
b110100 q
b110000 W
b110000 [
b110000 ]
b110000 p
b110000 w
b101100 +
b101100 6
b101100 *"
b101100 *
b101100 G
b101100 ^
b101100 4"
10
#20
b10 1
00
#25
b110000 #
b110000 =
b110000 x
b110000 1"
b110000 <
b110000 m
b110000 v
b0 :
b0 e
b0 s
b0 S
b0 Z
b0 _
b110000 /
b110000 4
b110000 &"
b110000 T
b110000 g
b110000 h
b110000 l
b10010000000000000000000000 ;
b10010000000000000000000000 k
b10010000000000000000000000 }
b110100 )
b110100 F
b110100 ~
b110100 3"
1,
1H
0"
0D
b0 P
b0 `
b0 t
b0 %"
b0 $"
b110000 8
b110000 d
b110000 j
b110000 %
b110000 @
b110000 /"
b100 (
b100 C
b100 ,"
b10010000000000000000000000 J
b10010000000000000000000000 i
b110100 N
b110100 r
b110100 |
b101011 z
b0 y
b10101100100100000000000000000000 !
b10101100100100000000000000000000 7
b10101100100100000000000000000000 +"
b110100 X
b110100 Y
b110100 q
b110100 W
b110100 [
b110100 ]
b110100 p
b110100 w
b110000 +
b110000 6
b110000 *"
b110000 *
b110000 G
b110000 ^
b110000 4"
b1 -
b1 5
b1 ("
b1 $
b1 ?
b1 u
b1 0"
10
#30
b11 1
00
#35
b110100 #
b110100 =
b110100 x
b110100 1"
b110100 <
b110100 m
b110100 v
b110100 /
b110100 4
b110100 &"
b110100 T
b110100 g
b110100 h
b110100 l
b100 :
b100 e
b100 s
b10000 S
b10000 Z
b10000 _
b10010000000000000000010000 ;
b10010000000000000000010000 k
b10010000000000000000010000 }
b111000 )
b111000 F
b111000 ~
b111000 3"
1,
1H
b100 P
b100 `
b100 t
b100 %"
b100 $"
b10010000000000000000010000 J
b10010000000000000000010000 i
b111000 N
b111000 r
b111000 |
b100 y
b10101100100100000000000000000100 !
b10101100100100000000000000000100 7
b10101100100100000000000000000100 +"
b1001000 X
b1001000 Y
b1001000 q
b111000 W
b111000 [
b111000 ]
b111000 p
b111000 w
b110100 +
b110100 6
b110100 *"
b110100 *
b110100 G
b110100 ^
b110100 4"
b0 .
b0 O
b0 n
b0 '"
10
#40
b100 1
00
#45
b111000 #
b111000 =
b111000 x
b111000 1"
b111000 <
b111000 m
b111000 v
b111000 /
b111000 4
b111000 &"
b111000 T
b111000 g
b111000 h
b111000 l
b1000 :
b1000 e
b1000 s
b100000 S
b100000 Z
b100000 _
b10010000000000000000100000 ;
b10010000000000000000100000 k
b10010000000000000000100000 }
b111100 )
b111100 F
b111100 ~
b111100 3"
1"
1D
0,
0H
b1000 P
b1000 `
b1000 t
b1000 %"
b1000 $"
b10010000000000000000100000 J
b10010000000000000000100000 i
b111100 N
b111100 r
b111100 |
b1000 z
b1000 y
b100000100100000000000000001000 !
b100000100100000000000000001000 7
b100000100100000000000000001000 +"
b1011100 X
b1011100 Y
b1011100 q
b111100 W
b111100 [
b111100 ]
b111100 p
b111100 w
b111000 +
b111000 6
b111000 *"
b111000 *
b111000 G
b111000 ^
b111000 4"
b0 .
b0 O
b0 n
b0 '"
10
#50
b101 1
00
#55
b111000 #
b111000 =
b111000 x
b111000 1"
b100 &
b100 A
b100 b
b100 ."
b111000 <
b111000 m
b111000 v
b100 >
b100 c
b100 #"
b111000 :
b111000 e
b111000 s
b1000000010000000 S
b1000000010000000 Z
b1000000010000000 _
b111000 /
b111000 4
b111000 &"
b111000 T
b111000 g
b111000 h
b111000 l
b10000001000000010000000 ;
b10000001000000010000000 k
b10000001000000010000000 }
b1000000 )
b1000000 F
b1000000 ~
b1000000 3"
1E
0U
b10000000100000 P
b10000000100000 `
b10000000100000 t
b10000000100000 %"
b10000000100000 $"
b100 ""
b0 8
b0 d
b0 j
b0 %
b0 @
b0 /"
b0 (
b0 C
b0 ,"
b10000001000000010000000 J
b10000001000000010000000 i
b1000000 N
b1000000 r
b1000000 |
b0 z
b100000 y
b100000010000000100000 !
b100000010000000100000 7
b100000010000000100000 +"
b1000000011000000 X
b1000000011000000 Y
b1000000011000000 q
b1000000 W
b1000000 [
b1000000 ]
b1000000 p
b1000000 w
b111100 +
b111100 6
b111100 *"
b111100 *
b111100 G
b111100 ^
b111100 4"
b111000 -
b111000 5
b111000 ("
b111000 $
b111000 ?
b111000 u
b111000 0"
10
#60
b110 1
00
#65
b0 <
b0 m
b0 v
b0 /
b0 4
b0 &"
b0 T
b0 g
b0 h
b0 l
b1000100 #
b1000100 =
b1000100 x
b1000100 1"
b11111 &
b11111 A
b11111 b
b11111 ."
b1000 S
b1000 Z
b1000 _
b0 >
b0 c
b0 #"
b0 :
b0 e
b0 s
b1000 ;
b1000 k
b1000 }
b1000 )
b1000 F
b1000 ~
b1000 3"
1L
1M
0E
b10 P
b10 `
b10 t
b10 %"
b10 $"
b0 !"
b0 ""
b0 -
b0 5
b0 ("
b0 $
b0 ?
b0 u
b0 0"
b0 '
b0 B
b0 -"
b1000 J
b1000 i
b1000100 N
b1000100 r
b1000100 |
b11 z
b10 y
b1100000000000000000000000010 !
b1100000000000000000000000010 7
b1100000000000000000000000010 +"
b1001100 X
b1001100 Y
b1001100 q
b1000100 W
b1000100 [
b1000100 ]
b1000100 p
b1000100 w
b1000000 +
b1000000 6
b1000000 *"
b1000000 *
b1000000 G
b1000000 ^
b1000000 4"
10
#70
b111 1
00
#75
b1 <
b1 m
b1 v
b1 .
b1 O
b1 n
b1 '"
b11111111111111111111111111111000 :
b11111111111111111111111111111000 e
b11111111111111111111111111111000 s
b1000 &
b1000 A
b1000 b
b1000 ."
b1100 )
b1100 F
b1100 ~
b1100 3"
b11111111111111111111111111100000 S
b11111111111111111111111111100000 Z
b11111111111111111111111111100000 _
b1000 >
b1000 c
b1000 #"
b110000 /
b110000 4
b110000 &"
b110000 T
b110000 g
b110000 h
b110000 l
b10001000111111111111100000 ;
b10001000111111111111100000 k
b10001000111111111111100000 }
1I
1U
0L
0M
b11111111111111111111111111111000 P
b11111111111111111111111111111000 `
b11111111111111111111111111111000 t
b11111111111111111111111111111000 %"
b1111111111111000 $"
b1000 !"
b11111 ""
b111000 8
b111000 d
b111000 j
b111000 %
b111000 @
b111000 /"
b100 (
b100 C
b100 ,"
b1000 '
b1000 B
b1000 -"
b10001000111111111111100000 J
b10001000111111111111100000 i
b1100 N
b1100 r
b1100 |
b1 #
b1 =
b1 x
b1 1"
b100011 z
b111000 y
b10001100100010001111111111111000 !
b10001100100010001111111111111000 7
b10001100100010001111111111111000 +"
b11111111111111111111111111101100 X
b11111111111111111111111111101100 Y
b11111111111111111111111111101100 q
b1100 W
b1100 [
b1100 ]
b1100 p
b1100 w
b1000 +
b1000 6
b1000 *"
b1000 *
b1000 G
b1000 ^
b1000 4"
10
#80
b1000 1
00
#85
b110100 /
b110100 4
b110100 &"
b110100 T
b110100 g
b110100 h
b110100 l
b1001 &
b1001 A
b1001 b
b1001 ."
b11111111111111111111111111111100 :
b11111111111111111111111111111100 e
b11111111111111111111111111111100 s
b11111111111111111111111111110000 S
b11111111111111111111111111110000 Z
b11111111111111111111111111110000 _
b1001 >
b1001 c
b1001 #"
b10001001111111111111110000 ;
b10001001111111111111110000 k
b10001001111111111111110000 }
b10000 )
b10000 F
b10000 ~
b10000 3"
1I
b11111111111111111111111111111100 P
b11111111111111111111111111111100 `
b11111111111111111111111111111100 t
b11111111111111111111111111111100 %"
b1111111111111100 $"
b1001 !"
b1001 '
b1001 B
b1001 -"
b10001001111111111111110000 J
b10001001111111111111110000 i
b10000 N
b10000 r
b10000 |
b111100 y
b10001100100010011111111111111100 !
b10001100100010011111111111111100 7
b10001100100010011111111111111100 +"
b0 X
b0 Y
b0 q
b10000 W
b10000 [
b10000 ]
b10000 p
b10000 w
b1100 +
b1100 6
b1100 *"
b1100 *
b1100 G
b1100 ^
b1100 4"
b0 -
b0 5
b0 ("
b0 $
b0 ?
b0 u
b0 0"
10
#90
b1001 1
00
#95
b10 &
b10 A
b10 b
b10 ."
b10 #
b10 =
b10 x
b10 1"
b10 >
b10 c
b10 #"
b10 <
b10 m
b10 v
b1 :
b1 e
b1 s
b100000010000000 S
b100000010000000 Z
b100000010000000 _
b0 .
b0 O
b0 n
b0 '"
b10 /
b10 4
b10 &"
b10 T
b10 g
b10 h
b10 l
b100001001000100000010000000 ;
b100001001000100000010000000 k
b100001001000100000010000000 }
b10100 )
b10100 F
b10100 ~
b10100 3"
1E
0U
0I
b1000000100000 P
b1000000100000 `
b1000000100000 t
b1000000100000 %"
b1000000100000 $"
b10 ""
b1 8
b1 d
b1 j
b1 %
b1 @
b1 /"
b1000 (
b1000 C
b1000 ,"
b100001001000100000010000000 J
b100001001000100000010000000 i
b10100 N
b10100 r
b10100 |
b0 z
b100000 y
b1000010010001000000100000 !
b1000010010001000000100000 7
b1000010010001000000100000 +"
b100000010010100 X
b100000010010100 Y
b100000010010100 q
b10100 W
b10100 [
b10100 ]
b10100 p
b10100 w
b10000 +
b10000 6
b10000 *"
b10000 *
b10000 G
b10000 ^
b10000 4"
b1 -
b1 5
b1 ("
b1 $
b1 ?
b1 u
b1 0"
10
#100
b1010 1
00
#105
b1000100 #
b1000100 =
b1000100 x
b1000100 1"
b0 &
b0 A
b0 b
b0 ."
b1000100 <
b1000100 m
b1000100 v
b100000 S
b100000 Z
b100000 _
b0 >
b0 c
b0 #"
b1000100 /
b1000100 4
b1000100 &"
b1000100 T
b1000100 g
b1000100 h
b1000100 l
b0 :
b0 e
b0 s
b1000100 ;
b1000100 k
b1000100 }
b1000100 )
b1000100 F
b1000100 ~
b1000100 3"
1M
1K
0"
0D
0E
b1000 P
b1000 `
b1000 t
b1000 %"
b1000 $"
b0 !"
b0 ""
b1000100 8
b1000100 d
b1000100 j
b1000100 %
b1000100 @
b1000100 /"
b11111 (
b11111 C
b11111 ,"
b0 -
b0 5
b0 ("
b0 $
b0 ?
b0 u
b0 0"
b0 '
b0 B
b0 -"
b1111100000000000000000100000 J
b1111100000000000000000100000 i
b11000 N
b11000 r
b11000 |
b1000 y
b11111000000000000000001000 !
b11111000000000000000001000 7
b11111000000000000000001000 +"
b111000 X
b111000 Y
b111000 q
b11000 W
b11000 [
b11000 ]
b11000 p
b11000 w
b10100 +
b10100 6
b10100 *"
b10100 *
b10100 G
b10100 ^
b10100 4"
10
#110
b1011 1
00
#115
b10 #
b10 =
b10 x
b10 1"
b101 &
b101 A
b101 b
b101 ."
b10 <
b10 m
b10 v
b1001000 )
b1001000 F
b1001000 ~
b1001000 3"
b1010000010000000 S
b1010000010000000 Z
b1010000010000000 _
b101 >
b101 c
b101 #"
b10 /
b10 4
b10 &"
b10 T
b10 g
b10 h
b10 l
b10001010000010000000 ;
b10001010000010000000 k
b10001010000010000000 }
b10 :
b10 e
b10 s
1E
1"
1D
0K
0M
b10100000100000 P
b10100000100000 `
b10100000100000 t
b10100000100000 %"
b10100000100000 $"
b10 !"
b101 ""
b0 8
b0 d
b0 j
b0 %
b0 @
b0 /"
b0 (
b0 C
b0 ,"
b10 -
b10 5
b10 ("
b10 $
b10 ?
b10 u
b10 0"
b10 '
b10 B
b10 -"
b10001010000010000000 J
b10001010000010000000 i
b1001000 N
b1001000 r
b1001000 |
b100000 y
b100010100000100000 !
b100010100000100000 7
b100010100000100000 +"
b1010000011001000 X
b1010000011001000 Y
b1010000011001000 q
b1001000 W
b1001000 [
b1001000 ]
b1001000 p
b1001000 w
b1000100 +
b1000100 6
b1000100 *"
b1000100 *
b1000100 G
b1000100 ^
b1000100 4"
10
#120
b1100 1
00
#125
b0 <
b0 m
b0 v
b0 /
b0 4
b0 &"
b0 T
b0 g
b0 h
b0 l
b1001100 #
b1001100 =
b1001100 x
b1001100 1"
b11111 &
b11111 A
b11111 b
b11111 ."
b11000 S
b11000 Z
b11000 _
b0 >
b0 c
b0 #"
b0 :
b0 e
b0 s
b11000 ;
b11000 k
b11000 }
b11000 )
b11000 F
b11000 ~
b11000 3"
1L
1M
0E
b110 P
b110 `
b110 t
b110 %"
b110 $"
b0 !"
b0 ""
b0 -
b0 5
b0 ("
b0 $
b0 ?
b0 u
b0 0"
b0 '
b0 B
b0 -"
b11000 J
b11000 i
b1001100 N
b1001100 r
b1001100 |
b11 z
b110 y
b1100000000000000000000000110 !
b1100000000000000000000000110 7
b1100000000000000000000000110 +"
b1100100 X
b1100100 Y
b1100100 q
b1001100 W
b1001100 [
b1001100 ]
b1001100 p
b1001100 w
b1001000 +
b1001000 6
b1001000 *"
b1001000 *
b1001000 G
b1001000 ^
b1001000 4"
10
#130
b1101 1
00
#135
b1 <
b1 m
b1 v
b1000 &
b1000 A
b1000 b
b1000 ."
b11100 )
b11100 F
b11100 ~
b11100 3"
b11111111111111111111111111110000 S
b11111111111111111111111111110000 Z
b11111111111111111111111111110000 _
b1000 >
b1000 c
b1000 #"
b1 .
b1 O
b1 n
b1 '"
b110100 /
b110100 4
b110100 &"
b110100 T
b110100 g
b110100 h
b110100 l
b11111111111111111111111111111100 :
b11111111111111111111111111111100 e
b11111111111111111111111111111100 s
b10001000111111111111110000 ;
b10001000111111111111110000 k
b10001000111111111111110000 }
1I
1U
0L
0M
b11111111111111111111111111111100 P
b11111111111111111111111111111100 `
b11111111111111111111111111111100 t
b11111111111111111111111111111100 %"
b1111111111111100 $"
b1000 !"
b11111 ""
b111000 8
b111000 d
b111000 j
b111000 %
b111000 @
b111000 /"
b100 (
b100 C
b100 ,"
b1 -
b1 5
b1 ("
b1 $
b1 ?
b1 u
b1 0"
b1000 '
b1000 B
b1000 -"
b10001000111111111111110000 J
b10001000111111111111110000 i
b11100 N
b11100 r
b11100 |
b1 #
b1 =
b1 x
b1 1"
b100011 z
b111100 y
b10001100100010001111111111111100 !
b10001100100010001111111111111100 7
b10001100100010001111111111111100 +"
b1100 X
b1100 Y
b1100 q
b11100 W
b11100 [
b11100 ]
b11100 p
b11100 w
b11000 +
b11000 6
b11000 *"
b11000 *
b11000 G
b11000 ^
b11000 4"
10
#140
b1110 1
00
#145
b10 &
b10 A
b10 b
b10 ."
b0 #
b0 =
b0 x
b0 1"
b10 >
b10 c
b10 #"
b0 <
b0 m
b0 v
b1 :
b1 e
b1 s
b100000010101000 S
b100000010101000 Z
b100000010101000 _
b0 .
b0 O
b0 n
b0 '"
b0 /
b0 4
b0 &"
b0 T
b0 g
b0 h
b0 l
b10101000000100000010101000 ;
b10101000000100000010101000 k
b10101000000100000010101000 }
b100000 )
b100000 F
b100000 ~
b100000 3"
1E
b101010 V
b101010 f
b101010 {
0U
0I
b1000000101010 P
b1000000101010 `
b1000000101010 t
b1000000101010 %"
b1000000101010 $"
b10 ""
b10 8
b10 d
b10 j
b10 %
b10 @
b10 /"
b101 (
b101 C
b101 ,"
b10101000000100000010101000 J
b10101000000100000010101000 i
b100000 N
b100000 r
b100000 |
b0 z
b101010 y
b101010000001000000101010 !
b101010000001000000101010 7
b101010000001000000101010 +"
b100000011001000 X
b100000011001000 Y
b100000011001000 q
b100000 W
b100000 [
b100000 ]
b100000 p
b100000 w
b11100 +
b11100 6
b11100 *"
b11100 *
b11100 G
b11100 ^
b11100 4"
10
#150
b1111 1
00
#155
b1001100 #
b1001100 =
b1001100 x
b1001100 1"
b0 &
b0 A
b0 b
b0 ."
b1001100 <
b1001100 m
b1001100 v
b100000 S
b100000 Z
b100000 _
b0 >
b0 c
b0 #"
b1001100 /
b1001100 4
b1001100 &"
b1001100 T
b1001100 g
b1001100 h
b1001100 l
b0 :
b0 e
b0 s
b1001100 ;
b1001100 k
b1001100 }
b1001100 )
b1001100 F
b1001100 ~
b1001100 3"
1M
1K
0"
0D
b100000 V
b100000 f
b100000 {
0E
b1000 P
b1000 `
b1000 t
b1000 %"
b1000 $"
b0 !"
b0 ""
b1001100 8
b1001100 d
b1001100 j
b1001100 %
b1001100 @
b1001100 /"
b11111 (
b11111 C
b11111 ,"
b0 -
b0 5
b0 ("
b0 $
b0 ?
b0 u
b0 0"
b0 '
b0 B
b0 -"
b1111100000000000000000100000 J
b1111100000000000000000100000 i
b100100 N
b100100 r
b100100 |
b1000 y
b11111000000000000000001000 !
b11111000000000000000001000 7
b11111000000000000000001000 +"
b1000100 X
b1000100 Y
b1000100 q
b100100 W
b100100 [
b100100 ]
b100100 p
b100100 w
b100000 +
b100000 6
b100000 *"
b100000 *
b100000 G
b100000 ^
b100000 4"
10
#160
b10000 1
00
#165
b0 #
b0 =
b0 x
b0 1"
b10 &
b10 A
b10 b
b10 ."
b0 <
b0 m
b0 v
b1010000 )
b1010000 F
b1010000 ~
b1010000 3"
b1100 S
b1100 Z
b1100 _
b10 >
b10 c
b10 #"
19
b0 /
b0 4
b0 &"
b0 T
b0 g
b0 h
b0 l
b10000000000000001100 ;
b10000000000000001100 k
b10000000000000001100 }
1Q
b100010 V
b100010 f
b100010 {
0K
0M
b11 P
b11 `
b11 t
b11 %"
b11 $"
b10 !"
b0 8
b0 d
b0 j
b0 %
b0 @
b0 /"
b0 (
b0 C
b0 ,"
b10 '
b10 B
b10 -"
b10000000000000001100 J
b10000000000000001100 i
b1010000 N
b1010000 r
b1010000 |
b101 z
b11 y
b10100000000100000000000000011 !
b10100000000100000000000000011 7
b10100000000100000000000000011 +"
b1011100 X
b1011100 Y
b1011100 q
b1010000 W
b1010000 [
b1010000 ]
b1010000 p
b1010000 w
b1001100 +
b1001100 6
b1001100 *"
b1001100 *
b1001100 G
b1001100 ^
b1001100 4"
10
#170
b10001 1
00
#175
b1010100 #
b1010100 =
b1010100 x
b1010100 1"
b11111 &
b11111 A
b11111 b
b11111 ."
09
b100100 S
b100100 Z
b100100 _
b0 >
b0 c
b0 #"
b100100 ;
b100100 k
b100100 }
b100100 )
b100100 F
b100100 ~
b100100 3"
1L
1M
1"
1D
b100000 V
b100000 f
b100000 {
0Q
b1001 P
b1001 `
b1001 t
b1001 %"
b1001 $"
b0 !"
b0 '
b0 B
b0 -"
b100100 J
b100100 i
b1010100 N
b1010100 r
b1010100 |
b11 z
b1001 y
b1100000000000000000000001001 !
b1100000000000000000000001001 7
b1100000000000000000000001001 +"
b1111000 X
b1111000 Y
b1111000 q
b1010100 W
b1010100 [
b1010100 ]
b1010100 p
b1010100 w
b1010000 +
b1010000 6
b1010000 *"
b1010000 *
b1010000 G
b1010000 ^
b1010000 4"
10
#180
b10010 1
00
#185
b111000 <
b111000 m
b111000 v
b101 &
b101 A
b101 b
b101 ."
b101000 )
b101000 F
b101000 ~
b101000 3"
b0 S
b0 Z
b0 _
b101 >
b101 c
b101 #"
b111000 /
b111000 4
b111000 &"
b111000 T
b111000 g
b111000 h
b111000 l
b10000101000000000000000000 ;
b10000101000000000000000000 k
b10000101000000000000000000 }
1,
1H
0"
0D
1U
0L
0M
b0 P
b0 `
b0 t
b0 %"
b0 $"
b101 !"
b111000 8
b111000 d
b111000 j
b111000 %
b111000 @
b111000 /"
b100 (
b100 C
b100 ,"
b10 -
b10 5
b10 ("
b10 $
b10 ?
b10 u
b10 0"
b101 '
b101 B
b101 -"
b10000101000000000000000000 J
b10000101000000000000000000 i
b101000 N
b101000 r
b101000 |
b111000 #
b111000 =
b111000 x
b111000 1"
b101011 z
b0 y
b10101100100001010000000000000000 !
b10101100100001010000000000000000 7
b10101100100001010000000000000000 +"
b101000 X
b101000 Y
b101000 q
b101000 W
b101000 [
b101000 ]
b101000 p
b101000 w
b100100 +
b100100 6
b100100 *"
b100100 *
b100100 G
b100100 ^
b100100 4"
10
#190
b10011 1
00
